{
  "type": "service_account",
  "project_id": "mspr-bloc-4-5135a",
  "private_key_id": "b80af073e0b35a23f2167594fbdd161d45180fcf",
  "private_key": "-----BEGIN PRIVATE KEY-----\nMIIEvQIBADANBgkqhkiG9w0BAQEFAASCBKcwggSjAgEAAoIBAQDXbTlxm9EiDqXR\nUjXwX9VrD4IdhaG8e9ka7FwClqiKZ2TsxwRHso5Z1PegqRDbbFKVy4HTm9tPmmby\n6/m4JouD3cJFHIE3Y/yv3pkOnUxOetv9zQk0EEMMyd6qFD6JIgwHVa8lOC5Xu7R1\nW4vflk1Ig6TZVqH0/ww05wv5WhJUjGQVZQdTDXgbybdNTAjUi77UDnQqHabnsG2a\nhj/83U5nXPJ0B7I6ra92hjVn04rBka3FrorOTJq9rnv+Dd89mHHRqejPkpRQt2uR\nt5QZCMUaoBMYowD7o27v0vKJERRNhM1hSnfAUUIl/sB4tsqb84JJxzUmxf+RiNUx\nXwj5hBpFAgMBAAECggEAMW0tg1vxQUOkFuEqYALU6BHwVA6ve5vcxZkaSTvA4rRz\nSwIkgMC+eWzr/dAcfoOddSHyoRb+3AY8fZrXukEZvIEaTBoMqaVGuiEz887yTYVR\nySsMZAYhJCOC83nemT8XDG3D2CHKPDXkYxLEhmGpTKxrm7QNR7Vm2xJxxF2+m+gI\nXz/35mIX6/pOzcBs+xqGF5bHBcMBHWf10LawhdhZgMfu6y6mWDLpJefjHjY/45Mx\nBTxHutCnCDxhSxo1ySZZg7W3zVTNb9FvfaEO5cvNE8l527gO+4NpYyD+/X8Buwa8\n8YxIZvFoRgYjJOYEBt/b9s4o80qR+n75Fs3gymeNoQKBgQDtxpM5ay35BNH2dcv8\nD9tqtg2Dw1lBbtqrNmJafyBhIdXcBm9Vzcys1PoL08wg2yGylgWroFSeOzlktK9A\nwU2BZTsFiKagFT/ltNd9/q34S1w0W9y3RMY2X81KzhSDbfGSI8bO79r/lQvJpE35\n6/wd2GqJn9HcK4tv1wcZUqPzdQKBgQDn8CLrI/9uO8fssqL7USNu0cIju1tLDOTJ\n8ooLOh2s43AXdMdVTYXKqegDXzXdhYLpYQcZO+fmbgUkGTAou5t3Onf4ds/ZbItX\n8dL1nN3lgwIXMJTnHrPvullMVJ9U89PB8Glhv0Ldm5MIWRwkrumqDDaDGgATrtd2\nVLM/2CzBkQKBgBmhBc1ymAn3UwpVuB77NpNR/DLvo3dCE5/QxNksSrkthHeq2eVN\nwXn/mtQbiC0icYdmVEYjiftkNtN8BkfcjhYcazg1eoBWygRgcbnK8cWJme6q2CeI\n6jSCLwaZH+zqtNcjtBIqGFjkH9kkNKNzpEEzSoh7CYvJxcXQT5uTJMjhAoGADHxY\n5N+jOIPvV0amj3Dmv2h7UwEbAQdIqbZsx/3w6wWzWw/mSylJMofC/at6ctplGbsn\nbqxS54y0qiTQ+uBeliSHoNCEj+fP+IQEH0S6jUhoLGdpHKgCd71IYVuM2D3oAGC4\ny5JIPzXIzII/iZoA6i6OILCdoHGhF7WnkKBKiIECgYEAwg0dfHhN42spTJcEZu01\nv8HIBMmI+e+pbSVR083S9PAyGdbgMXGXFi2IIwDzLtJZqzTpl7NQfx98pcPZk/CO\nSHIl2dffpoJZLQBgMFpYDK+m2isuajFM+6AWMA9nOPj/jarP5boW6gVGvE4tmIm7\noVuHRnWJhkhobOeLUpbBwPE=\n-----END PRIVATE KEY-----\n",
  "client_email": "firebase-adminsdk-xru5j@mspr-bloc-4-5135a.iam.gserviceaccount.com",
  "client_id": "106525495410460690285",
  "auth_uri": "https://accounts.google.com/o/oauth2/auth",
  "token_uri": "https://oauth2.googleapis.com/token",
  "auth_provider_x509_cert_url": "https://www.googleapis.com/oauth2/v1/certs",
  "client_x509_cert_url": "https://www.googleapis.com/robot/v1/metadata/x509/firebase-adminsdk-xru5j%40mspr-bloc-4-5135a.iam.gserviceaccount.com",
  "universe_domain": "googleapis.com"
}